﻿[2016.05.12-23.20.07:435][  0]Log file open, 05/12/16 19:20:07
[2016.05.12-23.20.07:435][  0]LogInit:Display: Running engine for game: BunnysClock
[2016.05.12-23.20.07:435][  0]LogPlatformFile: Not using cached read wrapper
[2016.05.12-23.20.07:435][  0]LogInit:Display: RandInit(148053422) SRandInit(148053424).
[2016.05.12-23.20.07:435][  0]LogTaskGraph: Started task graph with 4 named threads and 5 total threads.
[2016.05.12-23.20.07:435][  0]LogStats: Stats thread started at 0.118403
[2016.05.12-23.20.07:435][  0]LogInit: Version: 4.10.4-2872498+++depot+UE4-Releases+4.10
[2016.05.12-23.20.07:435][  0]LogInit: API Version: 2758231
[2016.05.12-23.20.07:435][  0]LogInit: Compiled (64-bit): Feb 18 2016 15:47:04
[2016.05.12-23.20.07:435][  0]LogInit: Compiled with Visual C++: 19.00.23026.00
[2016.05.12-23.20.07:435][  0]LogInit: Build Configuration: Development
[2016.05.12-23.20.07:435][  0]LogInit: Branch Name: ++depot+UE4-Releases+4.10
[2016.05.12-23.20.07:435][  0]LogInit: Command line:  
[2016.05.12-23.20.07:435][  0]LogInit: Base directory: C:/Program Files (x86)/Epic Games/4.10/Engine/Binaries/Win64/
[2016.05.12-23.20.07:435][  0]LogInit: Rocket: 1
[2016.05.12-23.20.07:463][  0]LogInit: Using libcurl 7.41.0
[2016.05.12-23.20.07:463][  0]LogInit:  - built for x86_64-pc-win32
[2016.05.12-23.20.07:463][  0]LogInit:  - supports SSL with WinSSL
[2016.05.12-23.20.07:463][  0]LogInit:  - other features:
[2016.05.12-23.20.07:463][  0]LogInit:      CURL_VERSION_SSL
[2016.05.12-23.20.07:463][  0]LogInit:      CURL_VERSION_IPV6
[2016.05.12-23.20.07:463][  0]LogInit:      CURL_VERSION_ASYNCHDNS
[2016.05.12-23.20.07:463][  0]LogInit:      CURL_VERSION_LARGEFILE
[2016.05.12-23.20.07:463][  0]LogInit:      CURL_VERSION_IDN
[2016.05.12-23.20.07:463][  0]LogInit:  CurlRequestOptions (configurable via config and command line):
[2016.05.12-23.20.07:463][  0]LogInit:  - bVerifyPeer = true  - Libcurl will verify peer certificate
[2016.05.12-23.20.07:463][  0]LogInit:  - bUseHttpProxy = false  - Libcurl will NOT use HTTP proxy
[2016.05.12-23.20.07:463][  0]LogInit:  - bDontReuseConnections = false  - Libcurl will reuse connections
[2016.05.12-23.20.07:463][  0]LogInit:  - CertBundlePath = nullptr  - Libcurl will use whatever was configured at build time.
[2016.05.12-23.20.07:554][  0]LogInit: Presizing for 0 objects not considered by GC, pre-allocating 0 bytes.
[2016.05.12-23.20.07:560][  0]LogInit: Object subsystem initialized
[2016.05.12-23.20.07:561][  0]LogInit: Selected Device Profile: [Windows]
[2016.05.12-23.20.07:561][  0]LogInit: Applying CVar settings loaded from the selected device profile: [Windows]
[2016.05.12-23.20.07:591][  0]LogInit: Computer: BIJAN-GAMING-LA
[2016.05.12-23.20.07:591][  0]LogInit: User: Friends
[2016.05.12-23.20.07:591][  0]LogInit: CPU Page size=4096, Cores=2
[2016.05.12-23.20.07:591][  0]LogInit: High frequency timer resolution =2.435772 MHz
[2016.05.12-23.20.07:591][  0]LogMemory: Memory total: Physical=5.8GB (6GB approx)
[2016.05.12-23.20.07:591][  0]LogMemory: Platform Memory Stats for Windows
[2016.05.12-23.20.07:591][  0]LogMemory: Process Physical Memory: 55.93 MB used, 55.93 MB peak
[2016.05.12-23.20.07:591][  0]LogMemory: Process Virtual Memory: 55.63 MB used, 55.63 MB peak
[2016.05.12-23.20.07:592][  0]LogMemory: Physical Memory: 4648.66 MB used, 5938.27 MB total
[2016.05.12-23.20.07:592][  0]LogMemory: Virtual Memory: 380.62 MB used, 134217728.00 MB total
[2016.05.12-23.20.07:875][  0]LogTextLocalizationManager: No specific translations for ('en-US') exist, so ('en') translations will be used.
[2016.05.12-23.20.08:587][  0]LogD3D11RHI: Found D3D11 adapter 0: NVIDIA GeForce GT 750M (Feature Level 11_0)
[2016.05.12-23.20.08:587][  0]LogD3D11RHI: Adapter has 1989MB of dedicated video memory, 0MB of dedicated system memory, and 2969MB of shared system memory, 1 output[s]
[2016.05.12-23.20.08:629][  0]LogD3D11RHI: Found D3D11 adapter 1: NVIDIA GeForce GT 750M (Feature Level 11_0)
[2016.05.12-23.20.08:629][  0]LogD3D11RHI: Adapter has 1989MB of dedicated video memory, 0MB of dedicated system memory, and 2969MB of shared system memory, 0 output[s]
[2016.05.12-23.20.08:631][  0]LogD3D11RHI: Found D3D11 adapter 2: Microsoft Basic Render Driver (Feature Level 11_0)
[2016.05.12-23.20.08:631][  0]LogD3D11RHI: Adapter has 0MB of dedicated video memory, 0MB of dedicated system memory, and 2969MB of shared system memory, 0 output[s]
[2016.05.12-23.20.08:631][  0]LogD3D11RHI: Chosen D3D11 Adapter Id = 0
[2016.05.12-23.20.08:640][  0]LogD3D11RHI: !Direct3DDevice
[2016.05.12-23.20.08:640][  0]LogRHI: Texture pool is 1361 MB (70% of 1945 MB)
[2016.05.12-23.20.08:656][  0]LogD3D11RHI: Async texture creation enabled
[2016.05.12-23.20.08:676][  0]LogShaderCompilers: Guid format shader working directory is -33 characters bigger than the processId version (../../../../../../Users/Friends/Documents/Unreal Projects/GDD2_Proj3/BunnysClock/Intermediate/Shaders/WorkingDirectory/12560/).
[2016.05.12-23.20.08:676][  0]LogShaderCompilers: Cleaned the shader compiler working directory 'C:/Users/Friends/AppData/Local/Temp/UnrealShaderWorkingDir/7B6002A94E0C391B3D1056897EA67B27/'.
[2016.05.12-23.20.08:676][  0]LogShaderCompilers:Display: Using Local Shader Compiler.
[2016.05.12-23.20.11:510][  0]LogTemp:Display: Loaded TP AllDesktopTargetPlatform
[2016.05.12-23.20.11:515][  0]LogTemp:Display: Loaded TP WindowsClientTargetPlatform
[2016.05.12-23.20.11:520][  0]LogTemp:Display: Loaded TP WindowsNoEditorTargetPlatform
[2016.05.12-23.20.11:526][  0]LogTemp:Display: Loaded TP WindowsServerTargetPlatform
[2016.05.12-23.20.11:530][  0]LogTemp:Display: Loaded TP WindowsTargetPlatform
[2016.05.12-23.20.11:536][  0]LogTemp:Display: Loaded TP AndroidTargetPlatform
[2016.05.12-23.20.11:540][  0]LogTemp:Display: Loaded TP Android_ASTCTargetPlatform
[2016.05.12-23.20.11:544][  0]LogTemp:Display: Loaded TP Android_ATCTargetPlatform
[2016.05.12-23.20.11:547][  0]LogTemp:Display: Loaded TP Android_DXTTargetPlatform
[2016.05.12-23.20.11:551][  0]LogTemp:Display: Loaded TP Android_ETC1TargetPlatform
[2016.05.12-23.20.11:556][  0]LogTemp:Display: Loaded TP Android_ETC2TargetPlatform
[2016.05.12-23.20.11:571][  0]LogTemp:Display: Loaded TP Android_MultiTargetPlatform
[2016.05.12-23.20.11:571][  0]LogTemp:Display: Loaded TP Android_PVRTCTargetPlatform
[2016.05.12-23.20.11:572][  0]LogTemp:Display: Loaded TP HTML5TargetPlatform
[2016.05.12-23.20.11:622][  0]LogTemp:Display: Loaded TP IOSTargetPlatform
[2016.05.12-23.20.11:625][  0]LogTemp:Display: Loaded TP LinuxNoEditorTargetPlatform
[2016.05.12-23.20.11:628][  0]LogTemp:Display: Loaded TP LinuxServerTargetPlatform
[2016.05.12-23.20.11:635][  0]LogTemp:Display: Loaded TP LinuxTargetPlatform
[2016.05.12-23.20.11:635][  0]LogTargetPlatformManager:Display: Building Assets For Windows
[2016.05.12-23.20.12:223][  0]LogDerivedDataCache:Display: Max Cache Size: 512 MB
[2016.05.12-23.20.12:285][  0]LogDerivedDataCache: Loaded boot cache 0.06s 41MB C:/Users/Friends/AppData/Local/UnrealEngine/4.10/DerivedDataCache/Boot.ddc.
[2016.05.12-23.20.12:285][  0]LogDerivedDataCache:Display: Loaded Boot cache: C:/Users/Friends/AppData/Local/UnrealEngine/4.10/DerivedDataCache/Boot.ddc
[2016.05.12-23.20.12:286][  0]LogDerivedDataCache: FDerivedDataBackendGraph:  Pak pak cache file ../../../../../../Users/Friends/Documents/Unreal Projects/GDD2_Proj3/BunnysClock/DerivedDataCache/DDC.ddp not found, will not use a pak cache.
[2016.05.12-23.20.12:286][  0]LogDerivedDataCache: Unable to find inner node Pak for hierarchical cache Hierarchy.
[2016.05.12-23.20.12:286][  0]LogDerivedDataCache: FDerivedDataBackendGraph:  CompressedPak pak cache file ../../../../../../Users/Friends/Documents/Unreal Projects/GDD2_Proj3/BunnysClock/DerivedDataCache/Compressed.ddp not found, will not use a pak cache.
[2016.05.12-23.20.12:286][  0]LogDerivedDataCache: Unable to find inner node CompressedPak for hierarchical cache Hierarchy.
[2016.05.12-23.20.12:393][  0]LogDerivedDataCache:Display: Pak cache opened for reading ../../../Engine/DerivedDataCache/Compressed.ddp.
[2016.05.12-23.20.12:404][  0]LogDerivedDataCache: Using Local data cache path C:/Users/Friends/AppData/Local/UnrealEngine/Common/DerivedDataCache: Writable
[2016.05.12-23.20.18:150][  0]LogInit: Selected Device Profile: [Windows]
[2016.05.12-23.20.18:153][  0]LogContentStreaming: Texture pool size is 0.000000MB
[2016.05.12-23.20.18:355][  0]LogMeshUtilities: No automatic mesh reduction module available
[2016.05.12-23.20.18:356][  0]LogMeshUtilities: No automatic mesh merging module available
[2016.05.12-23.20.19:104][  0]LogInit: WinSock: version 1.1 (2.2), MaxSocks=32767, MaxUdp=65467
[2016.05.12-23.20.22:495][  0]UdpMessaging: Initializing bridge on interface 0.0.0.0:0 to multicast group 230.0.0.1:6666.
[2016.05.12-23.20.22:665][  0]LogAssetRegistry: FAssetRegistry took 0.0107 seconds to start up
[2016.05.12-23.20.23:154][  0]SourceControl: Info Source control is disabled
[2016.05.12-23.20.25:028][  0]LogObj: 28637 objects as part of root set at end of initial load.
[2016.05.12-23.20.25:028][  0]LogUObjectAllocator: 6101536 out of 0 bytes used by permanent object pool.
[2016.05.12-23.20.25:167][  0]LogEngine: Initializing Engine...
[2016.05.12-23.20.25:170][  0]LogHMD: Can't find Oculus library dev build: is proper Runtime installed? Version: 0.8.0.0
[2016.05.12-23.20.25:193][  0]LogHMD: SteamVR failed to initialize.  Err: 110
[2016.05.12-23.20.25:608][  0]LogAIModule: Creating AISystem for world NewWorld
[2016.05.12-23.20.25:615][  0]LogInit: XAudio2 using 'Speakers (Realtek High Definition Audio)' : 2 channels at 48 kHz using 32 bits per sample (channel mask 0x3)
[2016.05.12-23.20.25:637][  0]LogInit: FAudioDevice initialized.
[2016.05.12-23.20.25:673][  0]LogDerivedDataCache: Saved boot cache 0.04s 41MB C:/Users/Friends/AppData/Local/UnrealEngine/4.10/DerivedDataCache/Boot.ddc.
[2016.05.12-23.20.25:693][  0]LogInit: Texture streaming: Enabled
[2016.05.12-23.20.25:699][  0]LogAnalytics: Creating configured Analytics provider AnalyticsET
[2016.05.12-23.20.25:699][  0]LogAnalytics: [UEEditor.Rocket.Release] APIServer = http://et2.epicgames.com/ET2/. AppVersion = 4.10.4-2872498+++depot+UE4-Releases+4.10
[2016.05.12-23.20.25:700][  0]LogAnalytics: [UEEditor.Rocket.Release] SetUserId 347900cc41bcbaa36f6f4b9fce3214cf|34b3797593cb43b2a05ed8f0a2a13c70|937ed857-06cd-4519-bc88-8c44d6703107
[2016.05.12-23.20.25:700][  0]LogAnalytics: [UEEditor.Rocket.Release] AnalyticsET::StartSession
[2016.05.12-23.20.25:711][  0]LogInit: Transaction tracking system initialized
[2016.05.12-23.20.25:741][  0]BlueprintLog: New page: Editor Load
[2016.05.12-23.20.25:873][  0]LocalizationService: Info Localization service is disabled
[2016.05.12-23.20.26:006][  0]LogConsoleResponse:Display: 
[2016.05.12-23.20.26:358][  0]LogCook:Display: Done creating registry. It took  0.00s.
[2016.05.12-23.20.26:805][  0]LogFileCache: Scanning file cache for directory 'C:/Users/Friends/Documents/Unreal Projects/GDD2_Proj3/BunnysClock/Content/' took 0.02s
[2016.05.12-23.20.26:805][  0]Cmd: MAP LOAD FILE="../../../../../../Users/Friends/Documents/Unreal Projects/GDD2_Proj3/BunnysClock/Content/2DSideScrollerBP/Maps/2DSideScrollerExampleMap.umap" TEMPLATE=0 SHOWPROGRESS=1 FEATURELEVEL=3
[2016.05.12-23.20.26:806][  0]LightingResults: New page: Lighting Build
[2016.05.12-23.20.26:808][  0]MapCheck: New page: Map Check
[2016.05.12-23.20.26:808][  0]LightingResults: New page: Lighting Build
[2016.05.12-23.20.26:835][  0]LogParticles: Destroying 0 GPU particle simulations for FXSystem 0x000001808BD436A0
[2016.05.12-23.20.27:135][  0]LogLinker:Warning: Can't find file '/Game/Animations/Bun-Idle/idleR'
[2016.05.12-23.20.27:135][  0]LogLinker:Warning: Can't find file for asset '/Game/Animations/Bun-Idle/idleR' while loading ../../../../../../Users/Friends/Documents/Unreal Projects/GDD2_Proj3/BunnysClock/Content/2DSideScrollerBP/Blueprints/2DSideScrollerCharacter.uasset.
[2016.05.12-23.20.27:148][  0]LoadErrors:Error: Error /Game/2DSideScrollerBP/Blueprints/2DSideScrollerCharacter : Can't find file for asset. /Game/Animations/Bun-Idle/idleR
[2016.05.12-23.20.27:149][  0]LogLinker:Warning: Can't find file '/Game/Animations/Bun-Run/bunRun'
[2016.05.12-23.20.27:149][  0]LogLinker:Warning: Can't find file for asset '/Game/Animations/Bun-Run/bunRun' while loading ../../../../../../Users/Friends/Documents/Unreal Projects/GDD2_Proj3/BunnysClock/Content/2DSideScrollerBP/Blueprints/2DSideScrollerCharacter.uasset.
[2016.05.12-23.20.27:149][  0]LoadErrors:Error: Error /Game/2DSideScrollerBP/Blueprints/2DSideScrollerCharacter : Can't find file for asset. /Game/Animations/Bun-Run/bunRun
[2016.05.12-23.20.27:149][  0]LogLinker:Warning: Can't find file '/Game/Animations/Bun-Idle/idleR'
[2016.05.12-23.20.27:149][  0]LogLinker:Warning: Can't find file for asset '/Game/Animations/Bun-Idle/idleR' while loading ../../../../../../Users/Friends/Documents/Unreal Projects/GDD2_Proj3/BunnysClock/Content/2DSideScrollerBP/Blueprints/2DSideScrollerCharacter.uasset.
[2016.05.12-23.20.27:149][  0]LoadErrors:Error: Error /Game/2DSideScrollerBP/Blueprints/2DSideScrollerCharacter : Can't find file for asset. /Game/Animations/Bun-Idle/idleR
[2016.05.12-23.20.27:150][  0]LogLinker:Warning: Can't find file '/Game/Animations/Bun-Run/bunRun'
[2016.05.12-23.20.27:150][  0]LogLinker:Warning: Can't find file for asset '/Game/Animations/Bun-Run/bunRun' while loading ../../../../../../Users/Friends/Documents/Unreal Projects/GDD2_Proj3/BunnysClock/Content/2DSideScrollerBP/Blueprints/2DSideScrollerCharacter.uasset.
[2016.05.12-23.20.27:150][  0]LoadErrors:Error: Error /Game/2DSideScrollerBP/Blueprints/2DSideScrollerCharacter : Can't find file for asset. /Game/Animations/Bun-Run/bunRun
[2016.05.12-23.20.27:151][  0]LogLinker:Warning: Can't find file '/Game/Animations/Bun-Idle/idleR'
[2016.05.12-23.20.27:152][  0]LogLinker:Warning: Can't find file for asset '/Game/Animations/Bun-Idle/idleR' while loading ../../../../../../Users/Friends/Documents/Unreal Projects/GDD2_Proj3/BunnysClock/Content/2DSideScrollerBP/Maps/2DSideScrollerExampleMap.umap.
[2016.05.12-23.20.27:152][  0]LoadErrors:Error: Error /Game/2DSideScrollerBP/Maps/2DSideScrollerExampleMap : Can't find file for asset. /Game/Animations/Bun-Idle/idleR
[2016.05.12-23.20.27:152][  0]LogLinker:Warning: Can't find file '/Game/Animations/Bun-Run/bunRun'
[2016.05.12-23.20.27:152][  0]LogLinker:Warning: Can't find file for asset '/Game/Animations/Bun-Run/bunRun' while loading ../../../../../../Users/Friends/Documents/Unreal Projects/GDD2_Proj3/BunnysClock/Content/2DSideScrollerBP/Maps/2DSideScrollerExampleMap.umap.
[2016.05.12-23.20.27:152][  0]LoadErrors:Error: Error /Game/2DSideScrollerBP/Maps/2DSideScrollerExampleMap : Can't find file for asset. /Game/Animations/Bun-Run/bunRun
[2016.05.12-23.20.27:152][  0]LogLinker:Warning: Can't find file '/Game/Animations/Bun-Idle/idleR'
[2016.05.12-23.20.27:152][  0]LogLinker:Warning: Can't find file for asset '/Game/Animations/Bun-Idle/idleR' while loading ../../../../../../Users/Friends/Documents/Unreal Projects/GDD2_Proj3/BunnysClock/Content/2DSideScrollerBP/Maps/2DSideScrollerExampleMap.umap.
[2016.05.12-23.20.27:152][  0]LoadErrors:Error: Error /Game/2DSideScrollerBP/Maps/2DSideScrollerExampleMap : Can't find file for asset. /Game/Animations/Bun-Idle/idleR
[2016.05.12-23.20.27:153][  0]LogLinker:Warning: Can't find file '/Game/Animations/Bun-Run/bunRun'
[2016.05.12-23.20.27:153][  0]LogLinker:Warning: Can't find file for asset '/Game/Animations/Bun-Run/bunRun' while loading ../../../../../../Users/Friends/Documents/Unreal Projects/GDD2_Proj3/BunnysClock/Content/2DSideScrollerBP/Maps/2DSideScrollerExampleMap.umap.
[2016.05.12-23.20.27:153][  0]LoadErrors:Error: Error /Game/2DSideScrollerBP/Maps/2DSideScrollerExampleMap : Can't find file for asset. /Game/Animations/Bun-Run/bunRun
[2016.05.12-23.20.27:159][  0]LogLinker:Warning: Can't find file '/Game/Animations/Bun-Idle/idleR'
[2016.05.12-23.20.27:160][  0]LoadErrors: Info Failed to load /Game/Animations/Bun-Idle/idleR.idleR Referenced by EdGraphPin_2141
[2016.05.12-23.20.27:160][  0]LogLinker:Warning: Can't find file for asset '/Game/Animations/Bun-Idle/idleR' while loading ../../../../../../Users/Friends/Documents/Unreal Projects/GDD2_Proj3/BunnysClock/Content/2DSideScrollerBP/Maps/2DSideScrollerExampleMap.umap.
[2016.05.12-23.20.27:160][  0]LoadErrors: Info Failed to load /Game/Animations/Bun-Idle/idleR.idleR Referenced by EdGraphPin_2141
[2016.05.12-23.20.27:160][  0]LoadErrors:Error: Error /Game/2DSideScrollerBP/Maps/2DSideScrollerExampleMap : Can't find file for asset. /Game/Animations/Bun-Idle/idleR
[2016.05.12-23.20.27:160][  0]LogLinker:Warning: Can't find file '/Game/Animations/Bun-Run/bunRun'
[2016.05.12-23.20.27:160][  0]LoadErrors: Info Failed to load /Game/Animations/Bun-Run/bunRun.bunRun Referenced by EdGraphPin_2142
[2016.05.12-23.20.27:161][  0]LogLinker:Warning: Can't find file for asset '/Game/Animations/Bun-Run/bunRun' while loading ../../../../../../Users/Friends/Documents/Unreal Projects/GDD2_Proj3/BunnysClock/Content/2DSideScrollerBP/Maps/2DSideScrollerExampleMap.umap.
[2016.05.12-23.20.27:161][  0]LoadErrors: Info Failed to load /Game/Animations/Bun-Run/bunRun.bunRun Referenced by EdGraphPin_2142
[2016.05.12-23.20.27:161][  0]LoadErrors:Error: Error /Game/2DSideScrollerBP/Maps/2DSideScrollerExampleMap : Can't find file for asset. /Game/Animations/Bun-Run/bunRun
[2016.05.12-23.20.29:422][  0]LogTexture:Display: Building textures: deathgear (AutoDXT)
[2016.05.12-23.20.37:550][  0]LogAIModule: Creating AISystem for world 2DSideScrollerExampleMap
[2016.05.12-23.20.37:558][  0]LogEditorServer: Finished looking for orphan Actors (0.000 secs)
[2016.05.12-23.20.37:559][  0]Cmd: MAP CHECKDEP NOCLEARLOG
[2016.05.12-23.20.37:648][  0]MapCheck: Info Map check complete: 0 Error(s), 0 Warning(s), took 89.118ms to complete.
[2016.05.12-23.20.37:648][  0]LogFileHelpers: Loading map '2DSideScrollerExampleMap' took 10.843
[2016.05.12-23.20.37:845][  0]LogCollectionManager: Loaded 0 collections in 0.003347 seconds
[2016.05.12-23.20.37:888][  0]LogFileCache: Scanning file cache for directory 'C:/Users/Friends/Documents/Unreal Projects/GDD2_Proj3/BunnysClock/Saved/Collections/' took 0.01s
[2016.05.12-23.20.37:888][  0]LogFileCache: Scanning file cache for directory 'C:/Users/Friends/Documents/Unreal Projects/GDD2_Proj3/BunnysClock/Content/Developers/Friends/Collections/' took 0.01s
[2016.05.12-23.20.37:888][  0]LogFileCache: Scanning file cache for directory 'C:/Users/Friends/Documents/Unreal Projects/GDD2_Proj3/BunnysClock/Content/Collections/' took 0.01s
[2016.05.12-23.20.37:888][  0]LogCollectionManager: Rebuilt the GUID cache for 0 collections in 0.000002 seconds
[2016.05.12-23.20.37:904][  0]LogContentBrowser: Native class hierarchy populated in 0.0157 seconds. Added 1894 classes and 340 folders.
[2016.05.12-23.20.37:916][  0]LogContentBrowser: Native class hierarchy updated for 'WidgetCarousel' in 0.0042 seconds. Added 0 classes and 0 folders.
[2016.05.12-23.20.38:558][  0]LogContentBrowser: Native class hierarchy updated for 'AddContentDialog' in 0.0036 seconds. Added 0 classes and 0 folders.
[2016.05.12-23.20.38:659][  0]LogContentBrowser: Native class hierarchy updated for 'SceneOutliner' in 0.0028 seconds. Added 1 classes and 2 folders.
[2016.05.12-23.20.38:788][  0]LogCrashTracker: Crashtracker disabled due to settings.
[2016.05.12-23.20.38:800][  0]LogUObjectGlobals:Warning: Failed to find object 'Class None.'
[2016.05.12-23.20.38:822][  0]LogLoad: Full Startup: 34.31 seconds (BP compile: 0.12 seconds)
[2016.05.12-23.20.38:844][  0]LogOcInput: Can't find Oculus library dev build: is proper Runtime installed? Version: 0.8.0.0
[2016.05.12-23.20.38:965][  0]SourceControl: Info On branch master
[2016.05.12-23.20.38:965][  0]SourceControl: Info Your branch is up-to-date with 'origin/master'.
[2016.05.12-23.20.38:965][  0]SourceControl: Info Changes not staged for commit:
[2016.05.12-23.20.38:965][  0]SourceControl: Info   (use "git add <file>..." to update what will be committed)
[2016.05.12-23.20.38:965][  0]SourceControl: Info   (use "git checkout -- <file>..." to discard changes in working directory)
[2016.05.12-23.20.38:965][  0]SourceControl: Info 	modified:   BunnysClock/Intermediate/Config/CoalescedSourceConfigs/Engine.ini
[2016.05.12-23.20.38:965][  0]SourceControl: Info 	modified:   BunnysClock/Intermediate/Config/CoalescedSourceConfigs/Game.ini
[2016.05.12-23.20.38:965][  0]SourceControl: Info 	modified:   BunnysClock/Saved/Config/Windows/Editor.ini
[2016.05.12-23.20.38:965][  0]SourceControl: Info 	modified:   BunnysClock/Saved/Config/Windows/EditorPerProjectUserSettings.ini
[2016.05.12-23.20.38:965][  0]SourceControl: Info 	modified:   BunnysClock/Saved/Config/Windows/Engine.ini
[2016.05.12-23.20.38:965][  0]SourceControl: Info 	modified:   BunnysClock/Saved/Logs/BunnysClock.log
[2016.05.12-23.20.38:965][  0]SourceControl: Info Untracked files:
[2016.05.12-23.20.38:965][  0]SourceControl: Info   (use "git add <file>..." to include in what will be committed)
[2016.05.12-23.20.38:965][  0]SourceControl: Info 	BunnysClock/Saved/Logs/BunnysClock-backup-2016.05.12-19.20.07.log
[2016.05.12-23.20.38:965][  0]SourceControl: Info no changes added to commit (use "git add" and/or "git commit -a")
[2016.05.12-23.20.38:966][  0]LogContentStreaming: Texture pool size now 1000 MB
[2016.05.12-23.20.39:157][  0]LogRenderer: Reallocating scene render targets to support 964x432 (Frame:2).
[2016.05.12-23.20.39:570][  6]LogAssetRegistry: Asset discovery search completed in 16.9160 seconds
[2016.05.12-23.20.39:570][  6]LogCollectionManager: Rebuilt the object cache for 0 collections in 0.000001 seconds (found 0 objects)
[2016.05.12-23.20.39:570][  6]LogCollectionManager: Fixed up redirectors for 0 collections in 0.000019 seconds (updated 0 objects)
[2016.05.12-23.20.56:398][971]LogBlueprintUserMessages: Early PlayInEditor Detection: Level '/Game/2DSideScrollerBP/Maps/2DSideScrollerExampleMap.2DSideScrollerExampleMap:PersistentLevel' has LevelScriptBlueprint '/Game/2DSideScrollerBP/Maps/2DSideScrollerExampleMap.2DSideScrollerExampleMap:PersistentLevel.2DSideScrollerExampleMap' with GeneratedClass '/Game/2DSideScrollerBP/Maps/2DSideScrollerExampleMap.2DSideScrollerExampleMap_C' with ClassGeneratedBy '/Game/2DSideScrollerBP/Maps/2DSideScrollerExampleMap.2DSideScrollerExampleMap:PersistentLevel.2DSideScrollerExampleMap'
[2016.05.12-23.20.56:398][971]LogPlayLevel: PlayLevel: No blueprints needed recompiling
[2016.05.12-23.20.56:403][971]PIE: New page: PIE session: 2DSideScrollerExampleMap (May 12, 2016, 3:20:56 PM)
[2016.05.12-23.20.56:403][971]LogPlayLevel: Creating play world package: /Game/2DSideScrollerBP/Maps/UEDPIE_0_2DSideScrollerExampleMap
[2016.05.12-23.20.56:408][971]LogPlayLevel: PIE: StaticDuplicateObject took: (0.004713s)
[2016.05.12-23.20.56:409][971]LogAIModule: Creating AISystem for world 2DSideScrollerExampleMap
[2016.05.12-23.20.56:409][971]LogPlayLevel: PIE: World Init took: (0.001024s)
[2016.05.12-23.20.56:409][971]LogPlayLevel: PIE: Created PIE world by copying editor world from /Game/2DSideScrollerBP/Maps/2DSideScrollerExampleMap.2DSideScrollerExampleMap to /Game/2DSideScrollerBP/Maps/UEDPIE_0_2DSideScrollerExampleMap.2DSideScrollerExampleMap (0.006077s)
[2016.05.12-23.20.56:453][971]LogInit: XAudio2 using 'Speakers (Realtek High Definition Audio)' : 2 channels at 48 kHz using 32 bits per sample (channel mask 0x3)
[2016.05.12-23.20.56:464][971]LogInit: FAudioDevice initialized.
[2016.05.12-23.20.56:537][971]LogWorld: Game class is '2DSideScrollerGameMode_C'
[2016.05.12-23.20.56:543][971]LogWorld: Bringing World /Game/2DSideScrollerBP/Maps/UEDPIE_0_2DSideScrollerExampleMap.2DSideScrollerExampleMap up for play (max tick rate 60) at 2016.05.12-19.20.56
[2016.05.12-23.20.56:543][971]LogActor:Warning: GameSession /Game/2DSideScrollerBP/Maps/UEDPIE_0_2DSideScrollerExampleMap.2DSideScrollerExampleMap:PersistentLevel.GameSession_0 has natively added scene component(s), but none of them were set as the actor's RootComponent - picking one arbitrarily
[2016.05.12-23.20.56:543][971]LogActor:Warning: GameNetworkManager /Game/2DSideScrollerBP/Maps/UEDPIE_0_2DSideScrollerExampleMap.2DSideScrollerExampleMap:PersistentLevel.GameNetworkManager_0 has natively added scene component(s), but none of them were set as the actor's RootComponent - picking one arbitrarily
[2016.05.12-23.20.56:544][971]LogWorld: Bringing up level for play took: 0.005945
[2016.05.12-23.20.56:545][971]PIE: Info Play in editor start time for /Game/2DSideScrollerBP/Maps/UEDPIE_0_2DSideScrollerExampleMap -0.544
[2016.05.12-23.20.56:545][971]LogBlueprintUserMessages: Late PlayInEditor Detection: Level '/Game/2DSideScrollerBP/Maps/2DSideScrollerExampleMap.2DSideScrollerExampleMap:PersistentLevel' has LevelScriptBlueprint '/Game/2DSideScrollerBP/Maps/2DSideScrollerExampleMap.2DSideScrollerExampleMap:PersistentLevel.2DSideScrollerExampleMap' with GeneratedClass '/Game/2DSideScrollerBP/Maps/2DSideScrollerExampleMap.2DSideScrollerExampleMap_C' with ClassGeneratedBy '/Game/2DSideScrollerBP/Maps/2DSideScrollerExampleMap.2DSideScrollerExampleMap:PersistentLevel.2DSideScrollerExampleMap'
[2016.05.12-23.20.57:783][ 44]LogBlueprintUserMessages: Early EndPlayMap Detection: Level '/Game/2DSideScrollerBP/Maps/2DSideScrollerExampleMap.2DSideScrollerExampleMap:PersistentLevel' has LevelScriptBlueprint '/Game/2DSideScrollerBP/Maps/2DSideScrollerExampleMap.2DSideScrollerExampleMap:PersistentLevel.2DSideScrollerExampleMap' with GeneratedClass '/Game/2DSideScrollerBP/Maps/2DSideScrollerExampleMap.2DSideScrollerExampleMap_C' with ClassGeneratedBy '/Game/2DSideScrollerBP/Maps/2DSideScrollerExampleMap.2DSideScrollerExampleMap:PersistentLevel.2DSideScrollerExampleMap'
[2016.05.12-23.20.57:854][ 44]LogBlueprintUserMessages: Late EndPlayMap Detection: Level '/Game/2DSideScrollerBP/Maps/2DSideScrollerExampleMap.2DSideScrollerExampleMap:PersistentLevel' has LevelScriptBlueprint '/Game/2DSideScrollerBP/Maps/2DSideScrollerExampleMap.2DSideScrollerExampleMap:PersistentLevel.2DSideScrollerExampleMap' with GeneratedClass '/Game/2DSideScrollerBP/Maps/2DSideScrollerExampleMap.2DSideScrollerExampleMap_C' with ClassGeneratedBy '/Game/2DSideScrollerBP/Maps/2DSideScrollerExampleMap.2DSideScrollerExampleMap:PersistentLevel.2DSideScrollerExampleMap'
[2016.05.12-23.20.57:883][ 44]LogParticles: Destroying 0 GPU particle simulations for FXSystem 0x00000180ADEFE340
[2016.05.12-23.20.59:575][137]LogEditorViewport: Clicking on Actor (LMB): 2DSideScrollerCharacter_C (2DSideScrollerCharacter)
[2016.05.12-23.21.28:850][814]LogLinker:Warning: Asset '../../../Engine/Content/ArtTools/RenderToTexture/Macros/RenderToTextureMacros.uasset' has been saved with empty engine version. The asset will be loaded but may be incompatible.
[2016.05.12-23.21.29:585][814]LogContentBrowser: Native class hierarchy updated for 'BlueprintGraph' in 0.0051 seconds. Added 107 classes and 0 folders.
[2016.05.12-23.21.44:075][480]LogTexture:Display: Building textures: bunngetready (BGRA8)
[2016.05.12-23.21.44:092][480]LogTexture:Display: Building textures: bunnland (BGRA8)
[2016.05.12-23.21.44:109][480]LogTexture:Display: Building textures: bunnjumpup (BGRA8)
[2016.05.12-23.21.56:513][115]LogSavePackage: Save=96.655190ms
[2016.05.12-23.21.56:513][115]LogSavePackage: Moving '../../../../../../Users/Friends/Documents/Unreal Projects/GDD2_Proj3/BunnysClock/Saved/2DSideScrollerCharacter30D61C9C49C9BCEA2BA084AB34BB69BC.tmp' to '../../../../../../Users/Friends/Documents/Unreal Projects/GDD2_Proj3/BunnysClock/Content/2DSideScrollerBP/Blueprints/2DSideScrollerCharacter.uasset'
[2016.05.12-23.21.56:520][115]LogSavePackage: Total save time: 137.194287ms
[2016.05.12-23.21.56:520][115]LogSavePackage:Display: Finished SavePackage ../../../../../../Users/Friends/Documents/Unreal Projects/GDD2_Proj3/BunnysClock/Content/2DSideScrollerBP/Blueprints/2DSideScrollerCharacter.uasset
[2016.05.12-23.21.57:029][143]BlueprintLog: New page: Compile 2DSideScrollerCharacter
[2016.05.12-23.21.57:416][143]BlueprintEditorCompileResults: Info [0112.90] Compile of 2DSideScrollerCharacter successful! [in 386 ms]
[2016.05.12-23.22.00:522][312]LogBlueprintUserMessages: Early PlayInEditor Detection: Level '/Game/2DSideScrollerBP/Maps/2DSideScrollerExampleMap.2DSideScrollerExampleMap:PersistentLevel' has LevelScriptBlueprint '/Game/2DSideScrollerBP/Maps/2DSideScrollerExampleMap.2DSideScrollerExampleMap:PersistentLevel.2DSideScrollerExampleMap' with GeneratedClass '/Game/2DSideScrollerBP/Maps/2DSideScrollerExampleMap.2DSideScrollerExampleMap_C' with ClassGeneratedBy '/Game/2DSideScrollerBP/Maps/2DSideScrollerExampleMap.2DSideScrollerExampleMap:PersistentLevel.2DSideScrollerExampleMap'
[2016.05.12-23.22.00:522][312]LogPlayLevel: PlayLevel: No blueprints needed recompiling
[2016.05.12-23.22.00:522][312]PIE: New page: PIE session: 2DSideScrollerExampleMap (May 12, 2016, 3:22:00 PM)
[2016.05.12-23.22.00:522][312]LogPlayLevel: Creating play world package: /Game/2DSideScrollerBP/Maps/UEDPIE_0_2DSideScrollerExampleMap
[2016.05.12-23.22.00:529][312]LogPlayLevel: PIE: StaticDuplicateObject took: (0.006510s)
[2016.05.12-23.22.00:530][312]LogAIModule: Creating AISystem for world 2DSideScrollerExampleMap
[2016.05.12-23.22.00:530][312]LogPlayLevel: PIE: World Init took: (0.000957s)
[2016.05.12-23.22.00:530][312]LogPlayLevel: PIE: Created PIE world by copying editor world from /Game/2DSideScrollerBP/Maps/2DSideScrollerExampleMap.2DSideScrollerExampleMap to /Game/2DSideScrollerBP/Maps/UEDPIE_0_2DSideScrollerExampleMap.2DSideScrollerExampleMap (0.007816s)
[2016.05.12-23.22.00:604][312]LogParticles: Destroying 0 GPU particle simulations for FXSystem 0x0000018099F54D60
[2016.05.12-23.22.00:640][312]LogInit: XAudio2 using 'Speakers (Realtek High Definition Audio)' : 2 channels at 48 kHz using 32 bits per sample (channel mask 0x3)
[2016.05.12-23.22.00:651][312]LogInit: FAudioDevice initialized.
[2016.05.12-23.22.00:686][312]LogWorld: Game class is '2DSideScrollerGameMode_C'
[2016.05.12-23.22.00:691][312]LogWorld: Bringing World /Game/2DSideScrollerBP/Maps/UEDPIE_0_2DSideScrollerExampleMap.2DSideScrollerExampleMap up for play (max tick rate 60) at 2016.05.12-19.22.00
[2016.05.12-23.22.00:691][312]LogActor:Warning: GameSession /Game/2DSideScrollerBP/Maps/UEDPIE_0_2DSideScrollerExampleMap.2DSideScrollerExampleMap:PersistentLevel.GameSession_1 has natively added scene component(s), but none of them were set as the actor's RootComponent - picking one arbitrarily
[2016.05.12-23.22.00:691][312]LogActor:Warning: GameNetworkManager /Game/2DSideScrollerBP/Maps/UEDPIE_0_2DSideScrollerExampleMap.2DSideScrollerExampleMap:PersistentLevel.GameNetworkManager_1 has natively added scene component(s), but none of them were set as the actor's RootComponent - picking one arbitrarily
[2016.05.12-23.22.00:692][312]LogWorld: Bringing up level for play took: 0.005482
[2016.05.12-23.22.00:693][312]PIE: Info Play in editor start time for /Game/2DSideScrollerBP/Maps/UEDPIE_0_2DSideScrollerExampleMap -0.397
[2016.05.12-23.22.00:693][312]LogBlueprintUserMessages: Late PlayInEditor Detection: Level '/Game/2DSideScrollerBP/Maps/2DSideScrollerExampleMap.2DSideScrollerExampleMap:PersistentLevel' has LevelScriptBlueprint '/Game/2DSideScrollerBP/Maps/2DSideScrollerExampleMap.2DSideScrollerExampleMap:PersistentLevel.2DSideScrollerExampleMap' with GeneratedClass '/Game/2DSideScrollerBP/Maps/2DSideScrollerExampleMap.2DSideScrollerExampleMap_C' with ClassGeneratedBy '/Game/2DSideScrollerBP/Maps/2DSideScrollerExampleMap.2DSideScrollerExampleMap:PersistentLevel.2DSideScrollerExampleMap'
[2016.05.12-23.22.07:408][712]LogBlueprintUserMessages: Early EndPlayMap Detection: Level '/Game/2DSideScrollerBP/Maps/2DSideScrollerExampleMap.2DSideScrollerExampleMap:PersistentLevel' has LevelScriptBlueprint '/Game/2DSideScrollerBP/Maps/2DSideScrollerExampleMap.2DSideScrollerExampleMap:PersistentLevel.2DSideScrollerExampleMap' with GeneratedClass '/Game/2DSideScrollerBP/Maps/2DSideScrollerExampleMap.2DSideScrollerExampleMap_C' with ClassGeneratedBy '/Game/2DSideScrollerBP/Maps/2DSideScrollerExampleMap.2DSideScrollerExampleMap:PersistentLevel.2DSideScrollerExampleMap'
[2016.05.12-23.22.07:476][712]LogBlueprintUserMessages: Late EndPlayMap Detection: Level '/Game/2DSideScrollerBP/Maps/2DSideScrollerExampleMap.2DSideScrollerExampleMap:PersistentLevel' has LevelScriptBlueprint '/Game/2DSideScrollerBP/Maps/2DSideScrollerExampleMap.2DSideScrollerExampleMap:PersistentLevel.2DSideScrollerExampleMap' with GeneratedClass '/Game/2DSideScrollerBP/Maps/2DSideScrollerExampleMap.2DSideScrollerExampleMap_C' with ClassGeneratedBy '/Game/2DSideScrollerBP/Maps/2DSideScrollerExampleMap.2DSideScrollerExampleMap:PersistentLevel.2DSideScrollerExampleMap'
[2016.05.12-23.22.07:537][712]LogParticles: Destroying 0 GPU particle simulations for FXSystem 0x000001809FED8D60
[2016.05.12-23.22.33:778][248]LogBlueprintUserMessages: Early PlayInEditor Detection: Level '/Game/2DSideScrollerBP/Maps/2DSideScrollerExampleMap.2DSideScrollerExampleMap:PersistentLevel' has LevelScriptBlueprint '/Game/2DSideScrollerBP/Maps/2DSideScrollerExampleMap.2DSideScrollerExampleMap:PersistentLevel.2DSideScrollerExampleMap' with GeneratedClass '/Game/2DSideScrollerBP/Maps/2DSideScrollerExampleMap.2DSideScrollerExampleMap_C' with ClassGeneratedBy '/Game/2DSideScrollerBP/Maps/2DSideScrollerExampleMap.2DSideScrollerExampleMap:PersistentLevel.2DSideScrollerExampleMap'
[2016.05.12-23.22.33:778][248]LogPlayLevel: PlayLevel: No blueprints needed recompiling
[2016.05.12-23.22.33:778][248]PIE: New page: PIE session: 2DSideScrollerExampleMap (May 12, 2016, 3:22:33 PM)
[2016.05.12-23.22.33:778][248]LogPlayLevel: Creating play world package: /Game/2DSideScrollerBP/Maps/UEDPIE_0_2DSideScrollerExampleMap
[2016.05.12-23.22.33:782][248]LogPlayLevel: PIE: StaticDuplicateObject took: (0.003884s)
[2016.05.12-23.22.33:782][248]LogAIModule: Creating AISystem for world 2DSideScrollerExampleMap
[2016.05.12-23.22.33:783][248]LogPlayLevel: PIE: World Init took: (0.000909s)
[2016.05.12-23.22.33:783][248]LogPlayLevel: PIE: Created PIE world by copying editor world from /Game/2DSideScrollerBP/Maps/2DSideScrollerExampleMap.2DSideScrollerExampleMap to /Game/2DSideScrollerBP/Maps/UEDPIE_0_2DSideScrollerExampleMap.2DSideScrollerExampleMap (0.005073s)
[2016.05.12-23.22.33:854][248]LogInit: XAudio2 using 'Speakers (Realtek High Definition Audio)' : 2 channels at 48 kHz using 32 bits per sample (channel mask 0x3)
[2016.05.12-23.22.33:878][248]LogInit: FAudioDevice initialized.
[2016.05.12-23.22.33:918][248]LogWorld: Game class is '2DSideScrollerGameMode_C'
[2016.05.12-23.22.33:923][248]LogWorld: Bringing World /Game/2DSideScrollerBP/Maps/UEDPIE_0_2DSideScrollerExampleMap.2DSideScrollerExampleMap up for play (max tick rate 60) at 2016.05.12-19.22.33
[2016.05.12-23.22.33:924][248]LogActor:Warning: GameSession /Game/2DSideScrollerBP/Maps/UEDPIE_0_2DSideScrollerExampleMap.2DSideScrollerExampleMap:PersistentLevel.GameSession_2 has natively added scene component(s), but none of them were set as the actor's RootComponent - picking one arbitrarily
[2016.05.12-23.22.33:924][248]LogActor:Warning: GameNetworkManager /Game/2DSideScrollerBP/Maps/UEDPIE_0_2DSideScrollerExampleMap.2DSideScrollerExampleMap:PersistentLevel.GameNetworkManager_2 has natively added scene component(s), but none of them were set as the actor's RootComponent - picking one arbitrarily
[2016.05.12-23.22.33:924][248]LogWorld: Bringing up level for play took: 0.005707
[2016.05.12-23.22.33:925][248]PIE: Info Play in editor start time for /Game/2DSideScrollerBP/Maps/UEDPIE_0_2DSideScrollerExampleMap 0.835
[2016.05.12-23.22.33:925][248]LogBlueprintUserMessages: Late PlayInEditor Detection: Level '/Game/2DSideScrollerBP/Maps/2DSideScrollerExampleMap.2DSideScrollerExampleMap:PersistentLevel' has LevelScriptBlueprint '/Game/2DSideScrollerBP/Maps/2DSideScrollerExampleMap.2DSideScrollerExampleMap:PersistentLevel.2DSideScrollerExampleMap' with GeneratedClass '/Game/2DSideScrollerBP/Maps/2DSideScrollerExampleMap.2DSideScrollerExampleMap_C' with ClassGeneratedBy '/Game/2DSideScrollerBP/Maps/2DSideScrollerExampleMap.2DSideScrollerExampleMap:PersistentLevel.2DSideScrollerExampleMap'
[2016.05.12-23.22.54:301][444]LogBlueprintUserMessages: Early EndPlayMap Detection: Level '/Game/2DSideScrollerBP/Maps/2DSideScrollerExampleMap.2DSideScrollerExampleMap:PersistentLevel' has LevelScriptBlueprint '/Game/2DSideScrollerBP/Maps/2DSideScrollerExampleMap.2DSideScrollerExampleMap:PersistentLevel.2DSideScrollerExampleMap' with GeneratedClass '/Game/2DSideScrollerBP/Maps/2DSideScrollerExampleMap.2DSideScrollerExampleMap_C' with ClassGeneratedBy '/Game/2DSideScrollerBP/Maps/2DSideScrollerExampleMap.2DSideScrollerExampleMap:PersistentLevel.2DSideScrollerExampleMap'
[2016.05.12-23.22.54:377][444]LogBlueprintUserMessages: Late EndPlayMap Detection: Level '/Game/2DSideScrollerBP/Maps/2DSideScrollerExampleMap.2DSideScrollerExampleMap:PersistentLevel' has LevelScriptBlueprint '/Game/2DSideScrollerBP/Maps/2DSideScrollerExampleMap.2DSideScrollerExampleMap:PersistentLevel.2DSideScrollerExampleMap' with GeneratedClass '/Game/2DSideScrollerBP/Maps/2DSideScrollerExampleMap.2DSideScrollerExampleMap_C' with ClassGeneratedBy '/Game/2DSideScrollerBP/Maps/2DSideScrollerExampleMap.2DSideScrollerExampleMap:PersistentLevel.2DSideScrollerExampleMap'
[2016.05.12-23.22.54:442][444]LogParticles: Destroying 0 GPU particle simulations for FXSystem 0x00000180C08B5760
[2016.05.12-23.23.12:374][279]LogSavePackage: Save=150.023071ms
[2016.05.12-23.23.12:374][279]LogSavePackage: Moving '../../../../../../Users/Friends/Documents/Unreal Projects/GDD2_Proj3/BunnysClock/Saved/2DSideScrollerExampleMap554C19FB4F2491AAC9BE77AB8A3F88AC.tmp' to '../../../../../../Users/Friends/Documents/Unreal Projects/GDD2_Proj3/BunnysClock/Content/2DSideScrollerBP/Maps/2DSideScrollerExampleMap.umap'
[2016.05.12-23.23.12:378][279]LogSavePackage: Total save time: 185.568683ms
[2016.05.12-23.23.12:378][279]LogSavePackage:Display: Finished SavePackage ../../../../../../Users/Friends/Documents/Unreal Projects/GDD2_Proj3/BunnysClock/Content/2DSideScrollerBP/Maps/2DSideScrollerExampleMap.umap
[2016.05.12-23.23.12:440][279]LogFileHelpers: Saving map '2DSideScrollerExampleMap' took 0.402
[2016.05.12-23.23.12:585][279]LogSavePackage: Save=114.086212ms
[2016.05.12-23.23.12:585][279]LogSavePackage: Moving '../../../../../../Users/Friends/Documents/Unreal Projects/GDD2_Proj3/BunnysClock/Saved/2DSideScrollerCharacter39D369AB46E15783CCF667A0BE464610.tmp' to '../../../../../../Users/Friends/Documents/Unreal Projects/GDD2_Proj3/BunnysClock/Content/2DSideScrollerBP/Blueprints/2DSideScrollerCharacter.uasset'
[2016.05.12-23.23.12:595][279]LogSavePackage: Total save time: 143.477712ms
[2016.05.12-23.23.12:595][279]LogSavePackage:Display: Finished SavePackage ../../../../../../Users/Friends/Documents/Unreal Projects/GDD2_Proj3/BunnysClock/Content/2DSideScrollerBP/Blueprints/2DSideScrollerCharacter.uasset
[2016.05.12-23.23.13:032][297]BlueprintLog: New page: Compile 2DSideScrollerCharacter
[2016.05.12-23.23.13:312][297]BlueprintEditorCompileResults: Info [0188.79] Compile of 2DSideScrollerCharacter successful! [in 279 ms]
[2016.05.12-23.23.15:908][417]LogBlueprintUserMessages: Early PlayInEditor Detection: Level '/Game/2DSideScrollerBP/Maps/2DSideScrollerExampleMap.2DSideScrollerExampleMap:PersistentLevel' has LevelScriptBlueprint '/Game/2DSideScrollerBP/Maps/2DSideScrollerExampleMap.2DSideScrollerExampleMap:PersistentLevel.2DSideScrollerExampleMap' with GeneratedClass '/Game/2DSideScrollerBP/Maps/2DSideScrollerExampleMap.2DSideScrollerExampleMap_C' with ClassGeneratedBy '/Game/2DSideScrollerBP/Maps/2DSideScrollerExampleMap.2DSideScrollerExampleMap:PersistentLevel.2DSideScrollerExampleMap'
[2016.05.12-23.23.15:908][417]LogPlayLevel: PlayLevel: No blueprints needed recompiling
[2016.05.12-23.23.15:908][417]PIE: New page: PIE session: 2DSideScrollerExampleMap (May 12, 2016, 3:23:15 PM)
[2016.05.12-23.23.15:908][417]LogPlayLevel: Creating play world package: /Game/2DSideScrollerBP/Maps/UEDPIE_0_2DSideScrollerExampleMap
[2016.05.12-23.23.15:914][417]LogPlayLevel: PIE: StaticDuplicateObject took: (0.005691s)
[2016.05.12-23.23.15:914][417]LogAIModule: Creating AISystem for world 2DSideScrollerExampleMap
[2016.05.12-23.23.15:915][417]LogPlayLevel: PIE: World Init took: (0.000903s)
[2016.05.12-23.23.15:915][417]LogPlayLevel: PIE: Created PIE world by copying editor world from /Game/2DSideScrollerBP/Maps/2DSideScrollerExampleMap.2DSideScrollerExampleMap to /Game/2DSideScrollerBP/Maps/UEDPIE_0_2DSideScrollerExampleMap.2DSideScrollerExampleMap (0.006863s)
[2016.05.12-23.23.15:971][417]LogParticles: Destroying 0 GPU particle simulations for FXSystem 0x00000180C1EEAAC0
[2016.05.12-23.23.15:997][417]LogInit: XAudio2 using 'Speakers (Realtek High Definition Audio)' : 2 channels at 48 kHz using 32 bits per sample (channel mask 0x3)
[2016.05.12-23.23.16:008][417]LogInit: FAudioDevice initialized.
[2016.05.12-23.23.16:051][417]LogWorld: Game class is '2DSideScrollerGameMode_C'
[2016.05.12-23.23.16:059][417]LogWorld: Bringing World /Game/2DSideScrollerBP/Maps/UEDPIE_0_2DSideScrollerExampleMap.2DSideScrollerExampleMap up for play (max tick rate 60) at 2016.05.12-19.23.16
[2016.05.12-23.23.16:059][417]LogActor:Warning: GameSession /Game/2DSideScrollerBP/Maps/UEDPIE_0_2DSideScrollerExampleMap.2DSideScrollerExampleMap:PersistentLevel.GameSession_3 has natively added scene component(s), but none of them were set as the actor's RootComponent - picking one arbitrarily
[2016.05.12-23.23.16:060][417]LogActor:Warning: GameNetworkManager /Game/2DSideScrollerBP/Maps/UEDPIE_0_2DSideScrollerExampleMap.2DSideScrollerExampleMap:PersistentLevel.GameNetworkManager_3 has natively added scene component(s), but none of them were set as the actor's RootComponent - picking one arbitrarily
[2016.05.12-23.23.16:065][417]LogWorld: Bringing up level for play took: 0.013343
[2016.05.12-23.23.16:079][417]PIE: Info Play in editor start time for /Game/2DSideScrollerBP/Maps/UEDPIE_0_2DSideScrollerExampleMap 0.989
[2016.05.12-23.23.16:080][417]LogBlueprintUserMessages: Late PlayInEditor Detection: Level '/Game/2DSideScrollerBP/Maps/2DSideScrollerExampleMap.2DSideScrollerExampleMap:PersistentLevel' has LevelScriptBlueprint '/Game/2DSideScrollerBP/Maps/2DSideScrollerExampleMap.2DSideScrollerExampleMap:PersistentLevel.2DSideScrollerExampleMap' with GeneratedClass '/Game/2DSideScrollerBP/Maps/2DSideScrollerExampleMap.2DSideScrollerExampleMap_C' with ClassGeneratedBy '/Game/2DSideScrollerBP/Maps/2DSideScrollerExampleMap.2DSideScrollerExampleMap:PersistentLevel.2DSideScrollerExampleMap'
[2016.05.12-23.23.20:010][643]LogBlueprintUserMessages: Early EndPlayMap Detection: Level '/Game/2DSideScrollerBP/Maps/2DSideScrollerExampleMap.2DSideScrollerExampleMap:PersistentLevel' has LevelScriptBlueprint '/Game/2DSideScrollerBP/Maps/2DSideScrollerExampleMap.2DSideScrollerExampleMap:PersistentLevel.2DSideScrollerExampleMap' with GeneratedClass '/Game/2DSideScrollerBP/Maps/2DSideScrollerExampleMap.2DSideScrollerExampleMap_C' with ClassGeneratedBy '/Game/2DSideScrollerBP/Maps/2DSideScrollerExampleMap.2DSideScrollerExampleMap:PersistentLevel.2DSideScrollerExampleMap'
[2016.05.12-23.23.20:086][643]LogBlueprintUserMessages: Late EndPlayMap Detection: Level '/Game/2DSideScrollerBP/Maps/2DSideScrollerExampleMap.2DSideScrollerExampleMap:PersistentLevel' has LevelScriptBlueprint '/Game/2DSideScrollerBP/Maps/2DSideScrollerExampleMap.2DSideScrollerExampleMap:PersistentLevel.2DSideScrollerExampleMap' with GeneratedClass '/Game/2DSideScrollerBP/Maps/2DSideScrollerExampleMap.2DSideScrollerExampleMap_C' with ClassGeneratedBy '/Game/2DSideScrollerBP/Maps/2DSideScrollerExampleMap.2DSideScrollerExampleMap:PersistentLevel.2DSideScrollerExampleMap'
[2016.05.12-23.23.20:142][643]LogParticles: Destroying 0 GPU particle simulations for FXSystem 0x00000180C6414C20
[2016.05.12-23.23.34:856][357]BlueprintLog: New page: Compile 2DSideScrollerCharacter
[2016.05.12-23.23.35:079][357]BlueprintEditorCompileResults: Info [0210.56] Compile of 2DSideScrollerCharacter successful! [in 223 ms]
[2016.05.12-23.23.37:666][473]LogSavePackage: Save=123.925804ms
[2016.05.12-23.23.37:666][473]LogSavePackage: Moving '../../../../../../Users/Friends/Documents/Unreal Projects/GDD2_Proj3/BunnysClock/Saved/2DSideScrollerCharacterF9DF6EA145071E39A6E20BBC7064AE21.tmp' to '../../../../../../Users/Friends/Documents/Unreal Projects/GDD2_Proj3/BunnysClock/Content/2DSideScrollerBP/Blueprints/2DSideScrollerCharacter.uasset'
[2016.05.12-23.23.37:672][473]LogSavePackage: Total save time: 163.856469ms
[2016.05.12-23.23.37:672][473]LogSavePackage:Display: Finished SavePackage ../../../../../../Users/Friends/Documents/Unreal Projects/GDD2_Proj3/BunnysClock/Content/2DSideScrollerBP/Blueprints/2DSideScrollerCharacter.uasset
[2016.05.12-23.23.39:615][570]LogBlueprintUserMessages: Early PlayInEditor Detection: Level '/Game/2DSideScrollerBP/Maps/2DSideScrollerExampleMap.2DSideScrollerExampleMap:PersistentLevel' has LevelScriptBlueprint '/Game/2DSideScrollerBP/Maps/2DSideScrollerExampleMap.2DSideScrollerExampleMap:PersistentLevel.2DSideScrollerExampleMap' with GeneratedClass '/Game/2DSideScrollerBP/Maps/2DSideScrollerExampleMap.2DSideScrollerExampleMap_C' with ClassGeneratedBy '/Game/2DSideScrollerBP/Maps/2DSideScrollerExampleMap.2DSideScrollerExampleMap:PersistentLevel.2DSideScrollerExampleMap'
[2016.05.12-23.23.39:615][570]LogPlayLevel: PlayLevel: No blueprints needed recompiling
[2016.05.12-23.23.39:615][570]PIE: New page: PIE session: 2DSideScrollerExampleMap (May 12, 2016, 3:23:39 PM)
[2016.05.12-23.23.39:615][570]LogPlayLevel: Creating play world package: /Game/2DSideScrollerBP/Maps/UEDPIE_0_2DSideScrollerExampleMap
[2016.05.12-23.23.39:620][570]LogPlayLevel: PIE: StaticDuplicateObject took: (0.005130s)
[2016.05.12-23.23.39:621][570]LogAIModule: Creating AISystem for world 2DSideScrollerExampleMap
[2016.05.12-23.23.39:621][570]LogPlayLevel: PIE: World Init took: (0.000890s)
[2016.05.12-23.23.39:621][570]LogPlayLevel: PIE: Created PIE world by copying editor world from /Game/2DSideScrollerBP/Maps/2DSideScrollerExampleMap.2DSideScrollerExampleMap to /Game/2DSideScrollerBP/Maps/UEDPIE_0_2DSideScrollerExampleMap.2DSideScrollerExampleMap (0.006304s)
[2016.05.12-23.23.39:694][570]LogParticles: Destroying 0 GPU particle simulations for FXSystem 0x00000180C4789940
[2016.05.12-23.23.39:722][570]LogInit: XAudio2 using 'Speakers (Realtek High Definition Audio)' : 2 channels at 48 kHz using 32 bits per sample (channel mask 0x3)
[2016.05.12-23.23.39:732][570]LogInit: FAudioDevice initialized.
[2016.05.12-23.23.39:784][570]LogWorld: Game class is '2DSideScrollerGameMode_C'
[2016.05.12-23.23.39:791][570]LogWorld: Bringing World /Game/2DSideScrollerBP/Maps/UEDPIE_0_2DSideScrollerExampleMap.2DSideScrollerExampleMap up for play (max tick rate 60) at 2016.05.12-19.23.39
[2016.05.12-23.23.39:791][570]LogActor:Warning: GameSession /Game/2DSideScrollerBP/Maps/UEDPIE_0_2DSideScrollerExampleMap.2DSideScrollerExampleMap:PersistentLevel.GameSession_4 has natively added scene component(s), but none of them were set as the actor's RootComponent - picking one arbitrarily
[2016.05.12-23.23.39:791][570]LogActor:Warning: GameNetworkManager /Game/2DSideScrollerBP/Maps/UEDPIE_0_2DSideScrollerExampleMap.2DSideScrollerExampleMap:PersistentLevel.GameNetworkManager_4 has natively added scene component(s), but none of them were set as the actor's RootComponent - picking one arbitrarily
[2016.05.12-23.23.39:792][570]LogWorld: Bringing up level for play took: 0.006326
[2016.05.12-23.23.39:793][570]PIE: Info Play in editor start time for /Game/2DSideScrollerBP/Maps/UEDPIE_0_2DSideScrollerExampleMap 0.703
[2016.05.12-23.23.39:793][570]LogBlueprintUserMessages: Late PlayInEditor Detection: Level '/Game/2DSideScrollerBP/Maps/2DSideScrollerExampleMap.2DSideScrollerExampleMap:PersistentLevel' has LevelScriptBlueprint '/Game/2DSideScrollerBP/Maps/2DSideScrollerExampleMap.2DSideScrollerExampleMap:PersistentLevel.2DSideScrollerExampleMap' with GeneratedClass '/Game/2DSideScrollerBP/Maps/2DSideScrollerExampleMap.2DSideScrollerExampleMap_C' with ClassGeneratedBy '/Game/2DSideScrollerBP/Maps/2DSideScrollerExampleMap.2DSideScrollerExampleMap:PersistentLevel.2DSideScrollerExampleMap'
[2016.05.12-23.23.53:169][352]LogBlueprintUserMessages: Early EndPlayMap Detection: Level '/Game/2DSideScrollerBP/Maps/2DSideScrollerExampleMap.2DSideScrollerExampleMap:PersistentLevel' has LevelScriptBlueprint '/Game/2DSideScrollerBP/Maps/2DSideScrollerExampleMap.2DSideScrollerExampleMap:PersistentLevel.2DSideScrollerExampleMap' with GeneratedClass '/Game/2DSideScrollerBP/Maps/2DSideScrollerExampleMap.2DSideScrollerExampleMap_C' with ClassGeneratedBy '/Game/2DSideScrollerBP/Maps/2DSideScrollerExampleMap.2DSideScrollerExampleMap:PersistentLevel.2DSideScrollerExampleMap'
[2016.05.12-23.23.53:261][352]LogBlueprintUserMessages: Late EndPlayMap Detection: Level '/Game/2DSideScrollerBP/Maps/2DSideScrollerExampleMap.2DSideScrollerExampleMap:PersistentLevel' has LevelScriptBlueprint '/Game/2DSideScrollerBP/Maps/2DSideScrollerExampleMap.2DSideScrollerExampleMap:PersistentLevel.2DSideScrollerExampleMap' with GeneratedClass '/Game/2DSideScrollerBP/Maps/2DSideScrollerExampleMap.2DSideScrollerExampleMap_C' with ClassGeneratedBy '/Game/2DSideScrollerBP/Maps/2DSideScrollerExampleMap.2DSideScrollerExampleMap:PersistentLevel.2DSideScrollerExampleMap'
[2016.05.12-23.23.53:335][352]LogParticles: Destroying 0 GPU particle simulations for FXSystem 0x00000180C0B405E0
[2016.05.12-23.23.56:578][498]LogSavePackage: Save=148.368561ms
[2016.05.12-23.23.56:578][498]LogSavePackage: Moving '../../../../../../Users/Friends/Documents/Unreal Projects/GDD2_Proj3/BunnysClock/Saved/2DSideScrollerExampleMapA3C1B87D410ED93FDB5B538FDD2EF24A.tmp' to '../../../../../../Users/Friends/Documents/Unreal Projects/GDD2_Proj3/BunnysClock/Content/2DSideScrollerBP/Maps/2DSideScrollerExampleMap.umap'
[2016.05.12-23.23.56:584][498]LogSavePackage: Total save time: 191.117231ms
[2016.05.12-23.23.56:584][498]LogSavePackage:Display: Finished SavePackage ../../../../../../Users/Friends/Documents/Unreal Projects/GDD2_Proj3/BunnysClock/Content/2DSideScrollerBP/Maps/2DSideScrollerExampleMap.umap
[2016.05.12-23.23.56:662][498]LogFileHelpers: Saving map '2DSideScrollerExampleMap' took 0.471
[2016.05.12-23.23.57:475][529]LogWindowsTextInputMethodSystem:Display: IME system now deactivated.
[2016.05.12-23.23.57:879][530]Cmd: QUIT_EDITOR
[2016.05.12-23.23.58:415][530]LogExit: Preparing to exit.
[2016.05.12-23.23.58:679][530]LogExit: Editor shut down
[2016.05.12-23.23.58:680][530]LogExit: Transaction tracking system shut down
[2016.05.12-23.23.58:703][530]LogParticles: Destroying 0 GPU particle simulations for FXSystem 0x00000180FCD6DEE0
[2016.05.12-23.23.58:703][530]LogParticles: Destroying 0 GPU particle simulations for FXSystem 0x00000180A09E8D60
[2016.05.12-23.23.58:704][530]LogParticles: Destroying 0 GPU particle simulations for FXSystem 0x00000180A07294E0
[2016.05.12-23.23.58:705][530]LogParticles: Destroying 0 GPU particle simulations for FXSystem 0x000001809A015300
[2016.05.12-23.23.59:069][530]LogExit: Object subsystem successfully closed.
[2016.05.12-23.23.59:084][530]LogD3D11RHI: Shutdown
[2016.05.12-23.23.59:084][530]LogD3D11RHI: CleanupD3DDevice
[2016.05.12-23.23.59:185][530]LogD3D11RHI: ~FD3D11DynamicRHI
[2016.05.12-23.23.59:216][530]LogModuleManager: Shutting down and abandoning module CookingStats (201)
[2016.05.12-23.23.59:216][530]LogModuleManager: Shutting down and abandoning module BlueprintGraph (200)
[2016.05.12-23.23.59:216][530]LogModuleManager: Shutting down and abandoning module CrashTracker (199)
[2016.05.12-23.23.59:216][530]LogModuleManager: Shutting down and abandoning module SceneOutliner (198)
[2016.05.12-23.23.59:216][530]LogModuleManager: Shutting down and abandoning module SuperSearch (197)
[2016.05.12-23.23.59:216][530]LogModuleManager: Shutting down and abandoning module WidgetCarousel (196)
[2016.05.12-23.23.59:216][530]LogModuleManager: Shutting down and abandoning module AddContentDialog (195)
[2016.05.12-23.23.59:217][530]LogModuleManager: Shutting down and abandoning module EditorWidgets (194)
[2016.05.12-23.23.59:217][530]LogModuleManager: Shutting down and abandoning module CollectionManager (193)
[2016.05.12-23.23.59:219][530]LogModuleManager: Shutting down and abandoning module StatsViewer (192)
[2016.05.12-23.23.59:219][530]LogModuleManager: Shutting down and abandoning module FoliageEdit (191)
[2016.05.12-23.23.59:219][530]LogModuleManager: Shutting down and abandoning module LandscapeEditor (190)
[2016.05.12-23.23.59:219][530]LogModuleManager: Shutting down and abandoning module ActorPickerMode (189)
[2016.05.12-23.23.59:219][530]LogModuleManager: Shutting down and abandoning module GeometryMode (188)
[2016.05.12-23.23.59:219][530]LogModuleManager: Shutting down and abandoning module TextureAlignMode (187)
[2016.05.12-23.23.59:219][530]LogModuleManager: Shutting down and abandoning module BspMode (186)
[2016.05.12-23.23.59:219][530]LogModuleManager: Shutting down and abandoning module PlacementMode (185)
[2016.05.12-23.23.59:219][530]LogModuleManager: Shutting down and abandoning module AutomationWorker (184)
[2016.05.12-23.23.59:219][530]LogModuleManager: Shutting down and abandoning module CharacterAI (183)
[2016.05.12-23.23.59:219][530]LogModuleManager: Shutting down and abandoning module SmartSnapping (182)
[2016.05.12-23.23.59:219][530]LogModuleManager: Shutting down and abandoning module ViewportSnapping (181)
[2016.05.12-23.23.59:219][530]LogModuleManager: Shutting down and abandoning module LogVisualizer (180)
[2016.05.12-23.23.59:220][530]LogModuleManager: Shutting down and abandoning module GameProjectGeneration (179)
[2016.05.12-23.23.59:220][530]LogModuleManager: Shutting down and abandoning module IntroTutorials (178)
[2016.05.12-23.23.59:220][530]LogModuleManager: Shutting down and abandoning module EditorLiveStreaming (177)
[2016.05.12-23.23.59:220][530]LogModuleManager: Shutting down and abandoning module IOSPlatformEditor (176)
[2016.05.12-23.23.59:220][530]LogModuleManager: Shutting down and abandoning module HTML5PlatformEditor (175)
[2016.05.12-23.23.59:220][530]LogModuleManager: Shutting down and abandoning module AndroidDeviceDetection (174)
[2016.05.12-23.24.00:000][530]LogModuleManager: Shutting down and abandoning module AndroidPlatformEditor (173)
[2016.05.12-23.24.00:000][530]LogModuleManager: Shutting down and abandoning module IOSRuntimeSettings (172)
[2016.05.12-23.24.00:000][530]LogModuleManager: Shutting down and abandoning module AndroidRuntimeSettings (171)
[2016.05.12-23.24.00:000][530]LogModuleManager: Shutting down and abandoning module MergeActors (170)
[2016.05.12-23.24.00:000][530]LogModuleManager: Shutting down and abandoning module SizeMap (169)
[2016.05.12-23.24.00:000][530]LogModuleManager: Shutting down and abandoning module TreeMap (168)
[2016.05.12-23.24.00:000][530]LogModuleManager: Shutting down and abandoning module ReferenceViewer (167)
[2016.05.12-23.24.00:000][530]LogModuleManager: Shutting down and abandoning module LocalizationService (166)
[2016.05.12-23.24.00:000][530]LogModuleManager: Shutting down and abandoning module LocalizationDashboard (165)
[2016.05.12-23.24.00:000][530]LogModuleManager: Shutting down and abandoning module HardwareTargeting (164)
[2016.05.12-23.24.00:000][530]LogModuleManager: Shutting down and abandoning module DeviceProfileEditor (163)
[2016.05.12-23.24.00:001][530]LogModuleManager: Shutting down and abandoning module UndoHistory (162)
[2016.05.12-23.24.00:001][530]LogModuleManager: Shutting down and abandoning module GameplayTagsEditor (161)
[2016.05.12-23.24.00:001][530]LogModuleManager: Shutting down and abandoning module UserFeedback (160)
[2016.05.12-23.24.00:001][530]LogModuleManager: Shutting down and abandoning module XmlParser (159)
[2016.05.12-23.24.00:001][530]LogModuleManager: Shutting down and abandoning module Blutility (158)
[2016.05.12-23.24.00:001][530]LogModuleManager: Shutting down and abandoning module ProjectTargetPlatformEditor (157)
[2016.05.12-23.24.00:001][530]LogModuleManager: Shutting down and abandoning module ProjectSettingsViewer (156)
[2016.05.12-23.24.00:001][530]LogModuleManager: Shutting down and abandoning module InputBindingEditor (155)
[2016.05.12-23.24.00:001][530]LogModuleManager: Shutting down and abandoning module EditorSettingsViewer (154)
[2016.05.12-23.24.00:001][530]LogModuleManager: Shutting down and abandoning module SettingsEditor (153)
[2016.05.12-23.24.00:001][530]LogModuleManager: Shutting down and abandoning module ProjectLauncher (152)
[2016.05.12-23.24.00:001][530]LogModuleManager: Shutting down and abandoning module SessionFrontend (151)
[2016.05.12-23.24.00:001][530]LogModuleManager: Shutting down and abandoning module ProfilerClient (150)
[2016.05.12-23.24.00:001][530]LogModuleManager: Shutting down and abandoning module TargetDeviceServices (149)
[2016.05.12-23.24.00:001][530]LogModuleManager: Shutting down and abandoning module DeviceManager (148)
[2016.05.12-23.24.00:001][530]LogModuleManager: Shutting down and abandoning module AutomationController (147)
[2016.05.12-23.24.00:001][530]LogModuleManager: Shutting down and abandoning module AutomationWindow (146)
[2016.05.12-23.24.00:001][530]LogModuleManager: Shutting down and abandoning module Layers (145)
[2016.05.12-23.24.00:001][530]LogModuleManager: Shutting down and abandoning module ComponentVisualizers (144)
[2016.05.12-23.24.00:001][530]LogModuleManager: Shutting down and abandoning module DetailCustomizations (143)
[2016.05.12-23.24.00:001][530]LogModuleManager: Shutting down and abandoning module PackagesDialog (142)
[2016.05.12-23.24.00:001][530]LogModuleManager: Shutting down and abandoning module Persona (141)
[2016.05.12-23.24.00:001][530]LogModuleManager: Shutting down and abandoning module Kismet (140)
[2016.05.12-23.24.00:001][530]LogModuleManager: Shutting down and abandoning module GraphEditor (139)
[2016.05.12-23.24.00:001][530]LogModuleManager: Shutting down and abandoning module ClassViewer (138)
[2016.05.12-23.24.00:001][530]LogModuleManager: Shutting down and abandoning module Toolbox (137)
[2016.05.12-23.24.00:001][530]LogModuleManager: Shutting down and abandoning module ModuleUI (136)
[2016.05.12-23.24.00:001][530]LogModuleManager: Shutting down and abandoning module MovieSceneTools (135)
[2016.05.12-23.24.00:001][530]LogModuleManager: Shutting down and abandoning module OutputLog (134)
[2016.05.12-23.24.00:001][530]LogModuleManager: Shutting down and abandoning module GammaUI (133)
[2016.05.12-23.24.00:001][530]LogModuleManager: Shutting down and abandoning module Documentation (132)
[2016.05.12-23.24.00:002][530]LogModuleManager: Shutting down and abandoning module GameLiveStreaming (131)
[2016.05.12-23.24.00:002][530]LogModuleManager: Shutting down and abandoning module StreamingPauseRendering (130)
[2016.05.12-23.24.00:002][530]LogModuleManager: Shutting down and abandoning module AnalyticsET (129)
[2016.05.12-23.24.00:002][530]LogModuleManager: Shutting down and abandoning module Analytics (128)
[2016.05.12-23.24.00:002][530]LogModuleManager: Shutting down and abandoning module AITestSuite (127)
[2016.05.12-23.24.00:002][530]LogModuleManager: Shutting down and abandoning module GameplayDebugger (126)
[2016.05.12-23.24.00:002][530]LogModuleManager: Shutting down and abandoning module AIModule (125)
[2016.05.12-23.24.00:002][530]LogModuleManager: Shutting down and abandoning module ProfilerService (124)
[2016.05.12-23.24.00:163][530]LogModuleManager: Shutting down and abandoning module TaskGraph (123)
[2016.05.12-23.24.00:163][530]LogModuleManager: Shutting down and abandoning module SlateRemote (122)
[2016.05.12-23.24.00:163][530]LogModuleManager: Shutting down and abandoning module SteamVRController (121)
[2016.05.12-23.24.00:163][530]LogModuleManager: Shutting down and abandoning module SteamVR (120)
[2016.05.12-23.24.00:163][530]LogModuleManager: Shutting down and abandoning module ProceduralMeshComponent (119)
[2016.05.12-23.24.00:163][530]LogModuleManager: Shutting down and abandoning module OculusLibrary (118)
[2016.05.12-23.24.00:163][530]LogModuleManager: Shutting down and abandoning module OculusInput (117)
[2016.05.12-23.24.00:163][530]LogModuleManager: Shutting down and abandoning module LeapMotionController (116)
[2016.05.12-23.24.00:210][530]LogModuleManager: Shutting down and abandoning module CustomMeshComponent (115)
[2016.05.12-23.24.00:210][530]LogModuleManager: Shutting down and abandoning module CableComponent (114)
[2016.05.12-23.24.00:210][530]LogModuleManager: Shutting down and abandoning module ArchVisCharacter (113)
[2016.05.12-23.24.00:210][530]LogModuleManager: Shutting down and abandoning module MessagingDebugger (112)
[2016.05.12-23.24.00:210][530]LogModuleManager: Shutting down and abandoning module MediaPlayerEditor (111)
[2016.05.12-23.24.00:210][530]LogModuleManager: Shutting down and abandoning module HTML5Networking (110)
[2016.05.12-23.24.00:210][530]LogModuleManager: Shutting down and abandoning module SpeedTreeImporter (109)
[2016.05.12-23.24.00:210][530]LogModuleManager: Shutting down and abandoning module PluginBrowser (108)
[2016.05.12-23.24.00:210][530]LogModuleManager: Shutting down and abandoning module EpicSurvey (107)
[2016.05.12-23.24.00:210][530]LogModuleManager: Shutting down and abandoning module DesktopPlatform (106)
[2016.05.12-23.24.00:210][530]LogModuleManager: Shutting down and abandoning module VisualStudioSourceCodeAccess (105)
[2016.05.12-23.24.00:210][530]LogModuleManager: Shutting down and abandoning module UObjectPlugin (104)
[2016.05.12-23.24.00:210][530]LogModuleManager: Shutting down and abandoning module SubversionSourceControl (103)
[2016.05.12-23.24.00:210][530]LogModuleManager: Shutting down and abandoning module PerforceSourceControl (102)
[2016.05.12-23.24.00:210][530]LogModuleManager: Shutting down and abandoning module SourceControl (101)
[2016.05.12-23.24.00:210][530]LogModuleManager: Shutting down and abandoning module GitSourceControl (100)
[2016.05.12-23.24.00:210][530]LogModuleManager: Shutting down and abandoning module LightPropagationVolumeEditor (99)
[2016.05.12-23.24.00:210][530]LogModuleManager: Shutting down and abandoning module PaperTiledImporter (98)
[2016.05.12-23.24.00:210][530]LogModuleManager: Shutting down and abandoning module PaperSpriteSheetImporter (97)
[2016.05.12-23.24.00:210][530]LogModuleManager: Shutting down and abandoning module MeshPaint (96)
[2016.05.12-23.24.00:210][530]LogModuleManager: Shutting down and abandoning module SlateReflector (95)
[2016.05.12-23.24.00:210][530]LogModuleManager: Shutting down and abandoning module HotReload (94)
[2016.05.12-23.24.00:210][530]LogModuleManager: Shutting down and abandoning module MainFrame (93)
[2016.05.12-23.24.00:210][530]LogModuleManager: Shutting down and abandoning module LevelEditor (92)
[2016.05.12-23.24.00:211][530]LogModuleManager: Shutting down and abandoning module DirectoryWatcher (91)
[2016.05.12-23.24.00:212][530]LogModuleManager: Shutting down and abandoning module AssetRegistry (90)
[2016.05.12-23.24.00:297][530]LogModuleManager: Shutting down and abandoning module ContentBrowser (89)
[2016.05.12-23.24.00:298][530]LogModuleManager: Shutting down and abandoning module Paper2DEditor (88)
[2016.05.12-23.24.00:298][530]LogModuleManager: Shutting down and abandoning module BunnysClock (87)
[2016.05.12-23.24.00:298][530]LogModuleManager: Shutting down and abandoning module UdpMessaging (86)
[2016.05.12-23.24.00:399][530]LogModuleManager: Shutting down and abandoning module LightPropagationVolumeRuntime (85)
[2016.05.12-23.24.00:399][530]LogModuleManager: Shutting down and abandoning module Paper2D (84)
[2016.05.12-23.24.00:399][530]LogModuleManager: Shutting down and abandoning module WindowsMoviePlayer (83)
[2016.05.12-23.24.00:403][530]LogModuleManager: Shutting down and abandoning module Media (82)
[2016.05.12-23.24.00:403][530]LogModuleManager: Shutting down and abandoning module WmfMedia (81)
[2016.05.12-23.24.00:403][530]LogModuleManager: Shutting down and abandoning module OnlineBlueprintSupport (80)
[2016.05.12-23.24.00:403][530]LogModuleManager: Shutting down and abandoning module GameplayTasksEditor (79)
[2016.05.12-23.24.00:403][530]LogModuleManager: Shutting down and abandoning module PropertyEditor (78)
[2016.05.12-23.24.00:403][530]LogModuleManager: Shutting down and abandoning module BehaviorTreeEditor (77)
[2016.05.12-23.24.00:403][530]LogModuleManager: Shutting down and abandoning module FunctionalTesting (76)
[2016.05.12-23.24.00:403][530]LogModuleManager: Shutting down and abandoning module CollisionAnalyzer (75)
[2016.05.12-23.24.00:403][530]LogModuleManager: Shutting down and abandoning module WorkspaceMenuStructure (74)
[2016.05.12-23.24.00:403][530]LogModuleManager: Shutting down and abandoning module MessageLog (73)
[2016.05.12-23.24.00:403][530]LogModuleManager: Shutting down and abandoning module Sequencer (72)
[2016.05.12-23.24.00:403][530]LogModuleManager: Shutting down and abandoning module AssetTools (71)
[2016.05.12-23.24.00:403][530]LogModuleManager: Shutting down and abandoning module UMGEditor (70)
[2016.05.12-23.24.00:403][530]LogModuleManager: Shutting down and abandoning module UMG (69)
[2016.05.12-23.24.00:403][530]LogModuleManager: Shutting down and abandoning module Slate (68)
[2016.05.12-23.24.00:403][530]LogModuleManager: Shutting down and abandoning module EditorStyle (67)
[2016.05.12-23.24.00:406][530]LogModuleManager: Shutting down and abandoning module SessionServices (66)
[2016.05.12-23.24.00:406][530]LogModuleManager: Shutting down and abandoning module SourceCodeAccess (65)
[2016.05.12-23.24.00:406][530]LogModuleManager: Shutting down and abandoning module HeadMountedDisplay (64)
[2016.05.12-23.24.00:406][530]LogModuleManager: Shutting down and abandoning module XAudio2 (63)
[2016.05.12-23.24.00:406][530]LogModuleManager: Shutting down and abandoning module Networking (61)
[2016.05.12-23.24.00:406][530]LogModuleManager: Shutting down and abandoning module Core (60)
[2016.05.12-23.24.00:406][530]LogModuleManager: Shutting down and abandoning module KismetCompiler (59)
[2016.05.12-23.24.00:406][530]LogModuleManager: Shutting down and abandoning module PhysXFormats (58)
[2016.05.12-23.24.00:406][530]LogModuleManager: Shutting down and abandoning module MeshUtilities (57)
[2016.05.12-23.24.00:406][530]LogModuleManager: Shutting down and abandoning module DerivedDataCache (56)
[2016.05.12-23.24.00:479][530]LogDerivedDataCache: Shutdown
[2016.05.12-23.24.00:480][530]LogModuleManager: Shutting down and abandoning module ShaderFormatOpenGL (55)
[2016.05.12-23.24.00:480][530]LogModuleManager: Shutting down and abandoning module ShaderFormatD3D (54)
[2016.05.12-23.24.00:480][530]LogModuleManager: Shutting down and abandoning module MetalShaderFormat (53)
[2016.05.12-23.24.00:480][530]LogModuleManager: Shutting down and abandoning module TextureFormatUncompressed (52)
[2016.05.12-23.24.00:480][530]LogModuleManager: Shutting down and abandoning module TextureFormatPVR (51)
[2016.05.12-23.24.00:480][530]LogModuleManager: Shutting down and abandoning module TextureFormatIntelISPCTexComp (50)
[2016.05.12-23.24.00:480][530]LogModuleManager: Shutting down and abandoning module TextureFormatDXT (49)
[2016.05.12-23.24.00:480][530]LogModuleManager: Shutting down and abandoning module ImageWrapper (48)
[2016.05.12-23.24.00:480][530]LogModuleManager: Shutting down and abandoning module TextureFormatASTC (47)
[2016.05.12-23.24.00:480][530]LogModuleManager: Shutting down and abandoning module TextureFormatAndroid (46)
[2016.05.12-23.24.00:480][530]LogModuleManager: Shutting down and abandoning module AudioFormatOpus (45)
[2016.05.12-23.24.00:480][530]LogModuleManager: Shutting down and abandoning module AudioFormatOgg (44)
[2016.05.12-23.24.00:480][530]LogModuleManager: Shutting down and abandoning module AudioFormatADPCM (43)
[2016.05.12-23.24.00:480][530]LogModuleManager: Shutting down and abandoning module LinuxTargetPlatform (42)
[2016.05.12-23.24.00:480][530]LogModuleManager: Shutting down and abandoning module LinuxServerTargetPlatform (41)
[2016.05.12-23.24.00:480][530]LogModuleManager: Shutting down and abandoning module LinuxNoEditorTargetPlatform (40)
[2016.05.12-23.24.00:480][530]LogModuleManager: Shutting down and abandoning module Messaging (39)
[2016.05.12-23.24.00:480][530]LogModuleManager: Shutting down and abandoning module IOSTargetPlatform (38)
[2016.05.12-23.24.00:480][530]LogModuleManager: Shutting down and abandoning module HTML5TargetPlatform (37)
[2016.05.12-23.24.00:480][530]LogModuleManager: Shutting down and abandoning module Android_PVRTCTargetPlatform (36)
[2016.05.12-23.24.00:480][530]LogModuleManager: Shutting down and abandoning module Android_MultiTargetPlatform (35)
[2016.05.12-23.24.00:480][530]LogModuleManager: Shutting down and abandoning module Android_ETC2TargetPlatform (34)
[2016.05.12-23.24.00:480][530]LogModuleManager: Shutting down and abandoning module Android_ETC1TargetPlatform (33)
[2016.05.12-23.24.00:480][530]LogModuleManager: Shutting down and abandoning module Android_DXTTargetPlatform (32)
[2016.05.12-23.24.00:480][530]LogModuleManager: Shutting down and abandoning module Android_ATCTargetPlatform (31)
[2016.05.12-23.24.00:480][530]LogModuleManager: Shutting down and abandoning module Android_ASTCTargetPlatform (30)
[2016.05.12-23.24.00:480][530]LogModuleManager: Shutting down and abandoning module AndroidTargetPlatform (29)
[2016.05.12-23.24.00:480][530]LogModuleManager: Shutting down and abandoning module WindowsTargetPlatform (28)
[2016.05.12-23.24.00:480][530]LogModuleManager: Shutting down and abandoning module WindowsServerTargetPlatform (27)
[2016.05.12-23.24.00:480][530]LogModuleManager: Shutting down and abandoning module WindowsNoEditorTargetPlatform (26)
[2016.05.12-23.24.00:480][530]LogModuleManager: Shutting down and abandoning module WindowsClientTargetPlatform (25)
[2016.05.12-23.24.00:480][530]LogModuleManager: Shutting down and abandoning module AllDesktopTargetPlatform (24)
[2016.05.12-23.24.00:480][530]LogModuleManager: Shutting down and abandoning module TargetPlatform (23)
[2016.05.12-23.24.00:480][530]LogModuleManager: Shutting down and abandoning module InputCore (22)
[2016.05.12-23.24.00:480][530]LogModuleManager: Shutting down and abandoning module Settings (21)
[2016.05.12-23.24.00:480][530]LogModuleManager: Shutting down and abandoning module OnlineSubsystem (19)
[2016.05.12-23.24.00:480][530]LogModuleManager: Shutting down and abandoning module HTTP (18)
[2016.05.12-23.24.02:483][530]LogModuleManager: Shutting down and abandoning module XMPP (17)
[2016.05.12-23.24.02:483][530]LogModuleManager: Shutting down and abandoning module OculusRift (16)
[2016.05.12-23.24.02:483][530]LogModuleManager: Shutting down and abandoning module ExampleDeviceProfileSelector (15)
[2016.05.12-23.24.02:483][530]LogModuleManager: Shutting down and abandoning module TextureCompressor (14)
[2016.05.12-23.24.02:483][530]LogModuleManager: Shutting down and abandoning module ShaderCore (13)
[2016.05.12-23.24.02:483][530]LogModuleManager: Shutting down and abandoning module Landscape (12)
[2016.05.12-23.24.02:483][530]LogModuleManager: Shutting down and abandoning module SlateRHIRenderer (11)
[2016.05.12-23.24.02:487][530]LogModuleManager: Shutting down and abandoning module OpenGLDrv (10)
[2016.05.12-23.24.02:487][530]LogModuleManager: Shutting down and abandoning module D3D11RHI (9)
[2016.05.12-23.24.02:487][530]LogModuleManager: Shutting down and abandoning module AnimGraphRuntime (8)
[2016.05.12-23.24.02:487][530]LogModuleManager: Shutting down and abandoning module Renderer (7)
[2016.05.12-23.24.02:487][530]LogModuleManager: Shutting down and abandoning module Engine (6)
[2016.05.12-23.24.02:487][530]LogModuleManager: Shutting down and abandoning module CoreUObject (5)
[2016.05.12-23.24.02:487][530]LogModuleManager: Shutting down and abandoning module NetworkFile (4)
[2016.05.12-23.24.02:487][530]LogModuleManager: Shutting down and abandoning module StreamingFile (3)
[2016.05.12-23.24.02:487][530]LogModuleManager: Shutting down and abandoning module SandboxFile (2)
[2016.05.12-23.24.02:487][530]LogModuleManager: Shutting down and abandoning module PakFile (1)
[2016.05.12-23.24.02:489][530]LogExit: Exiting.
[2016.05.12-23.24.02:515][530]Log file closed, 05/12/16 19:24:02
